^D:\DEV\UTILS\SRC\CONSOLE\CONSOLE.CPP|D:\DEV\UTILS\SRC\EXCEPTIONS\EXCEPTIONS.CPP|D:\DEV\UTILS\SRC\FILESYSTEM\FILESYSTEM.CPP|D:\DEV\UTILS\SRC\STREAM\STREAM.CPP|D:\DEV\UTILS\SRC\UTILS\ULIB.CPP
D:\DEV\UTILS\BUILD\UTILS.DIR\DEBUG\UTILS.PDB
D:\DEV\UTILS\BUILD\UTILS.DIR\DEBUG\CONSOLE.OBJ
D:\DEV\UTILS\BUILD\UTILS.DIR\DEBUG\STREAM.OBJ
D:\DEV\UTILS\BUILD\UTILS.DIR\DEBUG\EXCEPTIONS.OBJ
D:\DEV\UTILS\BUILD\UTILS.DIR\DEBUG\FILESYSTEM.OBJ
D:\DEV\UTILS\BUILD\UTILS.DIR\DEBUG\ULIB.OBJ
^D:\DEV\UTILS\SRC\UTILS\ULIB.CPP
D:\DEV\UTILS\BUILD\UTILS.DIR\DEBUG\UTILS.PDB
^D:\DEV\UTILS\SRC\FILESYSTEM\FILESYSTEM.CPP
D:\DEV\UTILS\BUILD\UTILS.DIR\DEBUG\UTILS.PDB
^D:\DEV\UTILS\SRC\EXCEPTIONS\EXCEPTIONS.CPP
D:\DEV\UTILS\BUILD\UTILS.DIR\DEBUG\UTILS.PDB
^D:\DEV\UTILS\SRC\STREAM\STREAM.CPP
D:\DEV\UTILS\BUILD\UTILS.DIR\DEBUG\UTILS.PDB
^D:\DEV\UTILS\SRC\CONSOLE\CONSOLE.CPP
D:\DEV\UTILS\BUILD\UTILS.DIR\DEBUG\UTILS.PDB
